第2章 数据导入、导出与预处理 | R数据分析入门
…
# 读取数据
df_darwin <- read_csv("data/darwin.csv")

# 单变量转换
df_darwin %>% 
  select(ID, num_range("air_time", 1:5)) %>% # 提取 air_time 1-5的变量 
  pivot_longer( # 转为长数据格式
    cols = starts_with("air_time"), # 选择目标变量
    names_to = "air_time", # 存储目标变量名称的新变量名称
    names_prefix = "air_time", # 识别目标变量的前缀，前缀之后的部分将转为新变量的元素
    values_to = "value" # 存储目标变量原先数据的新变量名称
  )

## # A tibble: 870 × 3
##    ID    air_time value
##    <chr> <chr>    <dbl>
##  1 id_1  1         5160
##  2 id_1  2         6085
##  3 id_1  3         4345
##  4 id_1  4        30625
##  5 id_1  5        66034
##  6 id_2  1        51980
##  7 id_2  2        10515
##  8 id_2  3        15885
##  9 id_2  4         7975
## 10 id_2  5        12875
## # ℹ 860 more rows

# 多变量转换
df_darwin %>% 
  select(ID, starts_with(c("air_time","gmrt_in_air"))) %>% # 提取 air_time 和 gmrt_in_air 1-5的变量
  pivot_longer( # 转为长数据格式
    cols = !ID, # 提取除 ID 之外的所有变量
    names_to = c("item", "wave"), # 构建存储目标变量和目标变量后缀的新变量名称
    names_pattern = "([\\w_]+)(\\d)", # 定义识别目标变量中想要提取元素（即括号内的元素）的正则表达式
    values_to = "value" # 存储目标变量原先数据的新变量名称
  ) 

## # A tibble: 1,740 × 4
##    ID    item        wave   value
##    <chr> <chr>       <chr>  <dbl>
##  1 id_1  air_time    1      5160 
##  2 id_1  air_time    2      6085 
##  3 id_1  air_time    3      4345 
##  4 id_1  air_time    4     30625 
##  5 id_1  air_time    5     66034 
##  6 id_1  gmrt_in_air 1       121.
##  7 id_1  gmrt_in_air 2       269.
##  8 id_1  gmrt_in_air 3       330.
##  9 id_1  gmrt_in_air 4       233.
## 10 id_1  gmrt_in_air 5       126.
## # ℹ 1,730 more rows
…
